…
## Inspect the info for one specific character (just pick one).
## What's the integer position of these elements:
## "name", "gender", "culture", "born", and "died".
## Map `[` over characters by INTEGER POSITIONS instead of name.

## Extract multiple things into data frame rows ----
map_dfr(got_chars, `[`, c("name", "culture", "gender", "id", "born", "alive"))
## # A tibble: 30 x 6
##    name               culture  gender    id born                     alive
##    <chr>              <chr>    <chr>  <int> <chr>                    <lgl>
##  1 Theon Greyjoy      Ironborn Male    1022 In 278 AC or 279 AC, at… T    
##  2 Tyrion Lannister   ""       Male    1052 In 273 AC, at Casterly … T    
##  3 Victarion Greyjoy  Ironborn Male    1074 In 268 AC or before, at… T    
##  4 Will               ""       Male    1109 ""                       F    
##  5 Areo Hotah         Norvoshi Male    1166 In 257 AC or before, at… T    
##  6 Chett              ""       Male    1267 At Hag's Mire            F    
##  7 Cressen            ""       Male    1295 In 219 AC or 220 AC      F    
##  8 Arianne Martell    Dornish  Female   130 In 276 AC, at Sunspear   T    
##  9 Daenerys Targaryen Valyrian Female  1303 In 284 AC, at Dragonsto… T    
## 10 Davos Seaworth     Westeros Male    1319 In 260 AC or before, at… T    
## # ... with 20 more rows
…
## list-columns = lists in a data frame ----
gt <- tibble(
  name = map_chr(got_chars, "name"),
  houses = map(got_chars, "allegiances")
)
View(gt)

## KEY IDEA: use map() inside tibble(), mutate(), filter(), etc.

## sidebar: revel in enframe <--> deframe
## named list <--> two column tibble
gt
## # A tibble: 30 x 2
##    name               houses   
##    <chr>              <list>   
##  1 Theon Greyjoy      <chr [1]>
##  2 Tyrion Lannister   <chr [1]>
##  3 Victarion Greyjoy  <chr [1]>
##  4 Will               <NULL>   
##  5 Areo Hotah         <chr [1]>
##  6 Chett              <NULL>   
##  7 Cressen            <NULL>   
##  8 Arianne Martell    <chr [1]>
##  9 Daenerys Targaryen <chr [1]>
## 10 Davos Seaworth     <chr [2]>
## # ... with 20 more rows
…
## NULL
## 
## $`Merrett Frey`
## [1] "House Frey of the Crossing"
## 
## $`Quentyn Martell`
## [1] "House Nymeros Martell of Sunspear"
## 
## $`Samwell Tarly`
## [1] "House Tarly of Horn Hill"
## 
## $`Sansa Stark`
## [1] "House Baelish of Harrenhal" "House Stark of Winterfell"
enframe(deframe(gt))
## # A tibble: 30 x 2
##    name               value    
##    <chr>              <list>   
##  1 Theon Greyjoy      <chr [1]>
##  2 Tyrion Lannister   <chr [1]>
##  3 Victarion Greyjoy  <chr [1]>
##  4 Will               <NULL>   
##  5 Areo Hotah         <chr [1]>
##  6 Chett              <NULL>   
##  7 Cressen            <NULL>   
##  8 Arianne Martell    <chr [1]>
##  9 Daenerys Targaryen <chr [1]>
## 10 Davos Seaworth     <chr [2]>
## # ... with 20 more rows
…
